// Jest Snapshot v1, https://goo.gl/fbAQLP

exports[`PypiInstallation renders all the messages 1`] = `
<div>
  <div
    class="gl-display-flex gl-justify-content-space-between gl-align-items-center"
  >
    <h3
      class="gl-font-lg"
    >
      Installation
    </h3>
     
    <div>
      <div
        class="dropdown b-dropdown gl-new-dropdown btn-group"
        id="__BVID__27"
        lazy=""
      >
        <!---->
        <button
          aria-expanded="false"
          aria-haspopup="menu"
          class="btn dropdown-toggle btn-default btn-md gl-button gl-dropdown-toggle"
          id="__BVID__27__BV_toggle_"
          type="button"
        >
          <!---->
           
          <!---->
           
          <span
            class="gl-new-dropdown-button-text"
          >
            Show PyPi commands
          </span>
           
          <svg
            aria-hidden="true"
            class="gl-button-icon dropdown-chevron gl-icon s16"
            data-testid="chevron-down-icon"
            role="img"
          >
            <use
              href="#chevron-down"
            />
          </svg>
        </button>
        <ul
          aria-labelledby="__BVID__27__BV_toggle_"
          class="dropdown-menu"
          role="menu"
          tabindex="-1"
        >
          <!---->
        </ul>
      </div>
    </div>
  </div>
   
  <fieldset
    class="form-group gl-form-group"
    id="installation-pip-command-group"
  >
    <legend
      class="bv-no-focus-ring col-form-label pt-0 col-form-label"
      id="installation-pip-command-group__BV_label_"
      tabindex="-1"
    >
      
      
      
      <!---->
       
      <!---->
    </legend>
    <div>
      <div
        data-testid="pip-command"
        id="installation-pip-command"
      >
        <label
          for="instruction-input_5"
        >
          Pip Command
        </label>
         
        <div
          class="gl-mb-3"
        >
          <div
            class="input-group gl-mb-3"
          >
            <input
              class="form-control gl-font-monospace"
              data-testid="instruction-input"
              id="instruction-input_5"
              readonly="readonly"
              type="text"
            />
             
            <span
              class="input-group-append"
              data-testid="instruction-button"
            >
              <button
                aria-label="Copy Pip command"
                aria-live="polite"
                class="btn input-group-text btn-default btn-md gl-button btn-default-secondary btn-icon"
                data-clipboard-handle-tooltip="false"
                data-clipboard-text="pip install @gitlab-org/package-15 --extra-index-url http://__token__:<your_personal_token>@gdk.test:3000/api/v4/projects/1/packages/pypi/simple"
                id="clipboard-button-6"
                title="Copy Pip command"
                type="button"
              >
                <!---->
                 
                <svg
                  aria-hidden="true"
                  class="gl-button-icon gl-icon s16"
                  data-testid="copy-to-clipboard-icon"
                  role="img"
                >
                  <use
                    href="#copy-to-clipboard"
                  />
                </svg>
                  
                <!---->
              </button>
            </span>
          </div>
        </div>
      </div>
      <!---->
      <!---->
      <small
        class="form-text text-muted"
        id="installation-pip-command-group__BV_description_"
        tabindex="-1"
      >
        You will need a 
        <a
          class="gl-link"
          data-testid="access-token-link"
          href="/help/user/profile/personal_access_tokens"
        >
          personal access token
        </a>
        .
      </small>
    </div>
  </fieldset>
   
  <h3
    class="gl-font-lg"
  >
    Registry setup
  </h3>
   
  <p>
    If you haven't already done so, you will need to add the below to your 
    <code>
      .pypirc
    </code>
     file.
  </p>
   
  <div
    data-testid="pypi-setup-content"
  >
    <!---->
     
    <div>
      <pre
        class="gl-font-monospace"
        data-testid="multiline-instruction"
      >
        [gitlab]
repository = http://gdk.test:3000/api/v4/projects/1/packages/pypi
username = __token__
password = &lt;your personal access token&gt;
      </pre>
    </div>
  </div>
   For more information on the PyPi registry, 
  <a
    class="gl-link"
    data-testid="pypi-docs-link"
    href="/help/user/packages/pypi_repository/index"
    rel="noopener"
    target="_blank"
  >
    see the documentation
  </a>
  .
</div>
`;
